{
"variables": {
    "ami_id": "ami-059f1cc52e6c85908",
    "aws_region": "us-east-1",
    "ssh_username": "centos",
    "aws_vpc_id": "vpc-e64eef9b"
},

"builders": [{
    "type": "amazon-ebs",
    "region": "{{user `aws_region`}}",
    "source_ami": "{{user `ami_id`}}",
    "instance_type": "t3.micro",
    "ssh_username": "{{user `ssh_username`}}",
    "ami_name": "Webserber",
    "ssh_keypair_name": "you key name",
    "ssh_private_key_file": "you key name",
    "vpc_id": "{{user `aws_vpc_id`}}"
}],

"provisioners": [{
    "type": "ansible",
    "playbook_file": "./provisioners/playbook.yml",
    "user": "{{user `ssh_username`}}",
    "ansible_env_vars": [
       "ANSIBLE_HOST_KEY_CHECKING=False"
            ]
        }
    ]
}
